[gd_scene load_steps=5 format=2]

[ext_resource path="res://Scenes/Base_Scene/Hitbox.tscn" type="PackedScene" id=1]
[ext_resource path="res://Scripts/Player/Arrow.gd" type="Script" id=2]
[ext_resource path="res://Sprites/Effects/flecha.png" type="Texture" id=3]

[sub_resource type="CapsuleShape2D" id=2]
radius = 5.0
height = 4.0

[node name="Arrow" type="KinematicBody2D"]
collision_layer = 0
collision_mask = 0
script = ExtResource( 2 )

[node name="Hitbox" parent="." instance=ExtResource( 1 )]
collision_layer = 0
collision_mask = 41

[node name="CollisionShape2D" parent="Hitbox" index="0"]
rotation = 1.5708
shape = SubResource( 2 )

[node name="Sprite" type="Sprite" parent="."]
scale = Vector2( 0.03, 0.03 )
texture = ExtResource( 3 )

[node name="Timer" type="Timer" parent="."]

[connection signal="area_entered" from="Hitbox" to="." method="_on_Hitbox_area_entered"]
[connection signal="timeout" from="Timer" to="." method="_on_Timer_timeout"]

[editable path="Hitbox"]
