[gd_scene load_steps=4 format=2]

[ext_resource path="res://Sprites/UI/HeartUIFull.png" type="Texture" id=1]
[ext_resource path="res://Scripts/UI/UIHearts.gd" type="Script" id=2]
[ext_resource path="res://Sprites/UI/HeartUIEmpty.png" type="Texture" id=3]

[node name="UIHearts" type="Control"]
margin_left = 5.0
margin_top = 6.0
margin_right = 45.0
margin_bottom = 18.0
script = ExtResource( 2 )

[node name="EmptyHearts" type="TextureRect" parent="."]
margin_right = 15.0
margin_bottom = 11.0
texture = ExtResource( 3 )
expand = true
stretch_mode = 2

[node name="FullHearts" type="TextureRect" parent="."]
margin_right = 14.0
margin_bottom = 11.0
texture = ExtResource( 1 )
expand = true
stretch_mode = 2
