[gd_scene load_steps=3 format=2]

[ext_resource path="res://_SOLARIA/16x16/Tilesets/Solaria Demo Update 01.png" type="Texture" id=1]

[sub_resource type="TileSet" id=1]
0/name = "Grass Hole"
0/texture = ExtResource( 1 )
0/tex_offset = Vector2( 0, 0 )
0/modulate = Color( 1, 1, 1, 1 )
0/region = Rect2( 0, 0, 80, 48 )
0/tile_mode = 1
0/autotile/bitmask_mode = 1
0/autotile/bitmask_flags = [ Vector2( 0, 0 ), 432, Vector2( 0, 1 ), 438, Vector2( 0, 2 ), 54, Vector2( 1, 0 ), 504, Vector2( 1, 1 ), 511, Vector2( 1, 2 ), 63, Vector2( 2, 0 ), 216, Vector2( 2, 1 ), 219, Vector2( 2, 2 ), 27, Vector2( 3, 0 ), 255, Vector2( 3, 1 ), 507, Vector2( 3, 2 ), 443, Vector2( 4, 0 ), 447, Vector2( 4, 1 ), 510, Vector2( 4, 2 ), 254 ]
0/autotile/icon_coordinate = Vector2( 0, 0 )
0/autotile/tile_size = Vector2( 16, 16 )
0/autotile/spacing = 0
0/autotile/occluder_map = [  ]
0/autotile/navpoly_map = [  ]
0/autotile/priority_map = [  ]
0/autotile/z_index_map = [  ]
0/occluder_offset = Vector2( 0, 0 )
0/navigation_offset = Vector2( 0, 0 )
0/shape_offset = Vector2( 0, 0 )
0/shape_transform = Transform2D( 1, 0, 0, 1, 0, 0 )
0/shape_one_way = false
0/shape_one_way_margin = 0.0
0/shapes = [  ]
0/z_index = 0
1/name = "Grass"
1/texture = ExtResource( 1 )
1/tex_offset = Vector2( 0, 0 )
1/modulate = Color( 1, 1, 1, 1 )
1/region = Rect2( 80, 0, 32, 32 )
1/tile_mode = 2
1/autotile/icon_coordinate = Vector2( 1, 0 )
1/autotile/tile_size = Vector2( 16, 16 )
1/autotile/spacing = 0
1/autotile/occluder_map = [  ]
1/autotile/navpoly_map = [  ]
1/autotile/priority_map = [  ]
1/autotile/z_index_map = [  ]
1/occluder_offset = Vector2( 0, 0 )
1/navigation_offset = Vector2( 0, 0 )
1/shape_offset = Vector2( 0, 0 )
1/shape_transform = Transform2D( 1, 0, 0, 1, 0, 0 )
1/shape_one_way = false
1/shape_one_way_margin = 0.0
1/shapes = [  ]
1/z_index = 0

[node name="Grass" type="TileMap"]
tile_set = SubResource( 1 )
cell_size = Vector2( 16, 16 )
format = 1
tile_data = PoolIntArray( 34, 1, 65536, 35, 1, 65536, 36, 1, 1, 37, 1, 1, 38, 1, 0, 39, 1, 1, 40, 1, 65537, 41, 1, 65536, 65570, 1, 65536, 65571, 1, 65537, 65572, 1, 65537, 65573, 1, 0, 65574, 1, 1, 65575, 1, 65537, 65576, 1, 65537, 65577, 1, 65537, 131106, 1, 65536, 131107, 1, 65536, 131108, 1, 65536, 131109, 1, 65536, 131110, 1, 65536, 131111, 1, 0, 131112, 1, 0, 131113, 1, 65536, 131114, 1, 1, 131115, 1, 0, 131116, 1, 0, 131117, 1, 0, 131118, 1, 65537, 131143, 1, 65536, 131144, 1, 0, 131145, 1, 65537, 131146, 1, 1, 131147, 1, 65537, 131148, 1, 0, 131149, 1, 1, 196638, 1, 0, 196639, 1, 65537, 196640, 1, 0, 196641, 1, 65536, 196642, 1, 1, 196643, 1, 0, 196644, 1, 1, 196645, 1, 65536, 196646, 1, 65536, 196647, 1, 65537, 196648, 1, 65537, 196649, 1, 0, 196650, 1, 65536, 196651, 1, 0, 196652, 1, 65537, 196653, 1, 65536, 196654, 1, 65537, 196679, 1, 1, 196680, 1, 65537, 196681, 1, 0, 196682, 1, 1, 196683, 1, 65536, 196684, 1, 1, 196685, 1, 0, 262174, 1, 65537, 262175, 1, 65537, 262176, 1, 65536, 262177, 1, 65537, 262178, 1, 65536, 262179, 1, 1, 262180, 1, 65537, 262181, 1, 1, 262182, 1, 0, 262183, 1, 65536, 262184, 1, 65537, 262185, 1, 1, 262186, 1, 0, 262187, 1, 65537, 262188, 1, 1, 262189, 1, 65536, 262190, 1, 1, 262211, 1, 65537, 262212, 1, 65537, 262213, 1, 65537, 262214, 1, 65537, 262215, 1, 0, 262216, 1, 0, 262217, 1, 65536, 262220, 1, 1, 262221, 1, 1, 262224, 0, 0, 262225, 0, 1, 262226, 0, 1, 262227, 0, 1, 262228, 0, 2, 327714, 1, 65536, 327715, 1, 65537, 327716, 1, 0, 327717, 1, 0, 327747, 1, 65537, 327748, 1, 1, 327749, 1, 0, 327750, 1, 1, 327751, 1, 65536, 327752, 1, 1, 327753, 1, 1, 327756, 1, 0, 327757, 1, 65536, 327760, 0, 65536, 327761, 0, 65537, 327762, 0, 65537, 327763, 0, 65537, 327764, 0, 65538, 393283, 1, 65537, 393284, 1, 65537, 393285, 1, 0, 393286, 1, 65537, 393287, 1, 65536, 393288, 1, 65537, 393289, 1, 65537, 393292, 1, 65536, 393293, 1, 65537, 393296, 0, 65536, 393297, 0, 65537, 393298, 0, 65537, 393299, 0, 65537, 393300, 0, 65538, 458819, 1, 1, 458820, 1, 0, 458821, 1, 65537, 458822, 1, 1, 458828, 1, 0, 458829, 1, 65537, 458832, 0, 65536, 458833, 0, 65537, 458834, 0, 65537, 458835, 0, 65537, 458836, 0, 65538, 524355, 1, 65536, 524356, 1, 1, 524357, 1, 0, 524358, 1, 0, 524359, 1, 65537, 524360, 1, 65537, 524361, 1, 65537, 524362, 1, 1, 524363, 1, 65536, 524364, 1, 65537, 524365, 1, 65536, 524368, 0, 65536, 524369, 0, 65537, 524370, 0, 65537, 524371, 0, 65537, 524372, 0, 65538, 589891, 1, 1, 589892, 1, 0, 589893, 1, 65536, 589894, 1, 0, 589895, 1, 0, 589896, 1, 65536, 589897, 1, 65536, 589898, 1, 0, 589899, 1, 65537, 589900, 1, 1, 589901, 1, 1, 589904, 0, 131072, 589905, 0, 131073, 589906, 0, 131073, 589907, 0, 131073, 589908, 0, 131074, 655427, 1, 65537, 655428, 1, 65537, 655429, 1, 1, 655430, 0, 0, 655431, 0, 1, 655432, 0, 1, 655433, 0, 1, 655434, 0, 2, 720963, 1, 0, 720964, 1, 1, 720965, 1, 65537, 720966, 0, 65536, 720967, 0, 65537, 720968, 0, 65537, 720969, 0, 65537, 720970, 0, 65538, 786499, 1, 0, 786500, 1, 0, 786501, 1, 0, 786502, 0, 65536, 786503, 0, 65537, 786504, 0, 65537, 786505, 0, 65537, 786506, 0, 65538, 852035, 1, 1, 852036, 1, 65537, 852037, 1, 65536, 852038, 0, 65536, 852039, 0, 65537, 852040, 0, 65537, 852041, 0, 65537, 852042, 0, 65538, 917571, 1, 65536, 917572, 1, 65537, 917573, 1, 65536, 917574, 0, 65536, 917575, 0, 65537, 917576, 0, 65537, 917577, 0, 65537, 917578, 0, 65538, 983107, 1, 65537, 983108, 1, 65537, 983109, 1, 1, 983110, 0, 65536, 983111, 0, 65537, 983112, 0, 65537, 983113, 0, 65537, 983114, 0, 65538, 1048643, 1, 65536, 1048644, 1, 0, 1048645, 1, 65537, 1048646, 0, 65536, 1048647, 0, 65537, 1048648, 0, 65537, 1048649, 0, 65537, 1048650, 0, 65538, 1114182, 0, 65536, 1114183, 0, 3, 1114184, 0, 131073, 1114185, 0, 131073, 1114186, 0, 131074, 1179718, 0, 65536, 1179719, 0, 65538, 1245251, 0, 0, 1245252, 0, 1, 1245253, 0, 1, 1245254, 0, 65540, 1245255, 0, 65538, 1310787, 0, 131072, 1310788, 0, 131073, 1310789, 0, 131073, 1310790, 0, 131073, 1310791, 0, 131074 )

[node name="Grass2" type="TileMap" parent="."]
tile_set = SubResource( 1 )
cell_size = Vector2( 16, 16 )
format = 1
tile_data = PoolIntArray( 131143, 0, 0, 131144, 0, 1, 131145, 0, 1, 131146, 0, 1, 131147, 0, 1, 131148, 0, 1, 131149, 0, 2, 196679, 0, 65536, 196680, 0, 65537, 196681, 0, 3, 196682, 0, 131073, 196683, 0, 131073, 196684, 0, 4, 196685, 0, 65538, 262211, 0, 0, 262212, 0, 1, 262213, 0, 1, 262214, 0, 1, 262215, 0, 65540, 262216, 0, 65537, 262217, 0, 65538, 262220, 0, 65536, 262221, 0, 65538, 327747, 0, 65536, 327748, 0, 65537, 327749, 0, 65537, 327750, 0, 65537, 327751, 0, 65537, 327752, 0, 65537, 327753, 0, 65538, 327756, 0, 65536, 327757, 0, 65538, 393283, 0, 65536, 393284, 0, 65537, 393285, 0, 65537, 393286, 0, 3, 393287, 0, 131073, 393288, 0, 131073, 393289, 0, 131074, 393292, 0, 65536, 393293, 0, 65538, 458819, 0, 65536, 458820, 0, 65537, 458821, 0, 65537, 458822, 0, 65538, 458828, 0, 65536, 458829, 0, 65538, 524355, 0, 65536, 524356, 0, 65537, 524357, 0, 65537, 524358, 0, 65539, 524359, 0, 1, 524360, 0, 1, 524361, 0, 1, 524362, 0, 1, 524363, 0, 1, 524364, 0, 65540, 524365, 0, 65538, 589891, 0, 65536, 589892, 0, 65537, 589893, 0, 3, 589894, 0, 131073, 589895, 0, 131073, 589896, 0, 131073, 589897, 0, 131073, 589898, 0, 131073, 589899, 0, 131073, 589900, 0, 131073, 589901, 0, 131074, 655427, 0, 65536, 655428, 0, 65537, 655429, 0, 65538, 720963, 0, 65536, 720964, 0, 65537, 720965, 0, 65538, 786499, 0, 65536, 786500, 0, 65537, 786501, 0, 65538, 852035, 0, 65536, 852036, 0, 65537, 852037, 0, 65538, 917571, 0, 65536, 917572, 0, 65537, 917573, 0, 65538, 983107, 0, 65536, 983108, 0, 65537, 983109, 0, 65538, 1048643, 0, 131072, 1048644, 0, 131073, 1048645, 0, 131074 )
